<svg width="44" height="44" viewBox="0 0 44 44" fill="none" xmlns="http://www.w3.org/2000/svg">
<path d="M17.0321 12.3016C17.7471 11.5866 18.9021 11.5866 19.6171 12.3016L28.0321 20.7166C28.7471 21.4316 28.7471 22.5866 28.0321 23.3016L19.6171 31.7166C18.9021 32.4316 17.7471 32.4316 17.0321 31.7166C16.3171 31.0016 16.3171 29.8466 17.0321 29.1316L24.1454 22L17.0321 14.8866C16.3171 14.1716 16.3354 12.9983 17.0321 12.3016Z" fill="#000033"/>
</svg>
